EESchema Schematic File Version 2
LIBS:power
LIBS:device
LIBS:transistors
LIBS:conn
LIBS:linear
LIBS:regul
LIBS:74xx
LIBS:cmos4000
LIBS:adc-dac
LIBS:memory
LIBS:xilinx
LIBS:special
LIBS:microcontrollers
LIBS:dsp
LIBS:microchip
LIBS:analog_switches
LIBS:motorola
LIBS:texas
LIBS:intel
LIBS:audio
LIBS:interface
LIBS:digital-audio
LIBS:philips
LIBS:display
LIBS:cypress
LIBS:siliconi
LIBS:opto
LIBS:atmel
LIBS:contrib
LIBS:valves
EELAYER 27 0
EELAYER END
$Descr A4 11693 8268
encoding utf-8
Sheet 1 1
Title ""
Date "16 nov 2016"
Rev ""
Comp ""
Comment1 ""
Comment2 ""
Comment3 ""
Comment4 ""
$EndDescr
$Comp
L LED D?
U 1 1 582CB712
P 4300 1900
F 0 "D?" H 4300 2000 50  0000 C CNN
F 1 "LED" H 4300 1800 50  0000 C CNN
F 2 "~" H 4300 1900 60  0000 C CNN
F 3 "~" H 4300 1900 60  0000 C CNN
	1    4300 1900
	1    0    0    -1  
$EndComp
$Comp
L LED D?
U 1 1 582CB721
P 4300 2250
F 0 "D?" H 4300 2350 50  0000 C CNN
F 1 "LED" H 4300 2150 50  0000 C CNN
F 2 "~" H 4300 2250 60  0000 C CNN
F 3 "~" H 4300 2250 60  0000 C CNN
	1    4300 2250
	1    0    0    -1  
$EndComp
$Comp
L R R?
U 1 1 582CB73F
P 4950 1900
F 0 "R?" V 5030 1900 40  0000 C CNN
F 1 "R" V 4957 1901 40  0000 C CNN
F 2 "~" V 4880 1900 30  0000 C CNN
F 3 "~" H 4950 1900 30  0000 C CNN
	1    4950 1900
	0    -1   -1   0   
$EndComp
$Comp
L R R?
U 1 1 582CB74E
P 4950 2250
F 0 "R?" V 5030 2250 40  0000 C CNN
F 1 "R" V 4957 2251 40  0000 C CNN
F 2 "~" V 4880 2250 30  0000 C CNN
F 3 "~" H 4950 2250 30  0000 C CNN
	1    4950 2250
	0    -1   -1   0   
$EndComp
$Comp
L SPST SW?
U 1 1 582CB7EE
P 6750 5500
F 0 "SW?" H 6750 5600 70  0000 C CNN
F 1 "SPST" H 6750 5400 70  0000 C CNN
F 2 "~" H 6750 5500 60  0000 C CNN
F 3 "~" H 6750 5500 60  0000 C CNN
	1    6750 5500
	1    0    0    -1  
$EndComp
$Comp
L SPST SW?
U 1 1 582CB7FD
P 6750 6000
F 0 "SW?" H 6750 6100 70  0000 C CNN
F 1 "SPST" H 6750 5900 70  0000 C CNN
F 2 "~" H 6750 6000 60  0000 C CNN
F 3 "~" H 6750 6000 60  0000 C CNN
	1    6750 6000
	1    0    0    -1  
$EndComp
$Comp
L C C?
U 1 1 582CB80C
P 10000 3300
F 0 "C?" H 10000 3400 40  0000 L CNN
F 1 "C" H 10006 3215 40  0000 L CNN
F 2 "~" H 10038 3150 30  0000 C CNN
F 3 "~" H 10000 3300 60  0000 C CNN
	1    10000 3300
	0    -1   -1   0   
$EndComp
$Comp
L C C?
U 1 1 582CB81B
P 10050 2700
F 0 "C?" H 10050 2800 40  0000 L CNN
F 1 "C" H 10056 2615 40  0000 L CNN
F 2 "~" H 10088 2550 30  0000 C CNN
F 3 "~" H 10050 2700 60  0000 C CNN
	1    10050 2700
	0    -1   -1   0   
$EndComp
$Comp
L CRYSTAL X?
U 1 1 582CB82A
P 9600 3000
F 0 "X?" H 9600 3150 60  0000 C CNN
F 1 "CRYSTAL" H 9600 2850 60  0000 C CNN
F 2 "~" H 9600 3000 60  0000 C CNN
F 3 "~" H 9600 3000 60  0000 C CNN
	1    9600 3000
	0    -1   -1   0   
$EndComp
$Comp
L ATMEGA328-P IC?
U 1 1 582CB839
P 7950 3100
F 0 "IC?" H 7200 4350 40  0000 L BNN
F 1 "ATMEGA328-P" H 8350 1700 40  0000 L BNN
F 2 "DIL28" H 7950 3100 30  0000 C CIN
F 3 "" H 7950 3100 60  0000 C CNN
	1    7950 3100
	1    0    0    -1  
$EndComp
$Comp
L GND #PWR?
U 1 1 582CB920
P 10450 3200
F 0 "#PWR?" H 10450 3200 30  0001 C CNN
F 1 "GND" H 10450 3130 30  0001 C CNN
F 2 "" H 10450 3200 60  0000 C CNN
F 3 "" H 10450 3200 60  0000 C CNN
	1    10450 3200
	1    0    0    -1  
$EndComp
$Comp
L R R?
U 1 1 582CB94F
P 9400 3750
F 0 "R?" V 9480 3750 40  0000 C CNN
F 1 "R" V 9407 3751 40  0000 C CNN
F 2 "~" V 9330 3750 30  0000 C CNN
F 3 "~" H 9400 3750 30  0000 C CNN
	1    9400 3750
	0    -1   -1   0   
$EndComp
$Comp
L +5V #PWR?
U 1 1 582CB95E
P 9800 3750
F 0 "#PWR?" H 9800 3840 20  0001 C CNN
F 1 "+5V" H 9800 3840 30  0000 C CNN
F 2 "" H 9800 3750 60  0000 C CNN
F 3 "" H 9800 3750 60  0000 C CNN
	1    9800 3750
	1    0    0    -1  
$EndComp
$Comp
L +5V #PWR?
U 1 1 582CB9B8
P 6550 1850
F 0 "#PWR?" H 6550 1940 20  0001 C CNN
F 1 "+5V" H 6550 1940 30  0000 C CNN
F 2 "" H 6550 1850 60  0000 C CNN
F 3 "" H 6550 1850 60  0000 C CNN
	1    6550 1850
	1    0    0    -1  
$EndComp
$Comp
L GND #PWR?
U 1 1 582CB9C7
P 6650 4350
F 0 "#PWR?" H 6650 4350 30  0001 C CNN
F 1 "GND" H 6650 4280 30  0001 C CNN
F 2 "" H 6650 4350 60  0000 C CNN
F 3 "" H 6650 4350 60  0000 C CNN
	1    6650 4350
	1    0    0    -1  
$EndComp
$Comp
L C C?
U 1 1 582CBA58
P 6750 3350
F 0 "C?" H 6750 3450 40  0000 L CNN
F 1 "C" H 6756 3265 40  0000 L CNN
F 2 "~" H 6788 3200 30  0000 C CNN
F 3 "~" H 6750 3350 60  0000 C CNN
	1    6750 3350
	1    0    0    -1  
$EndComp
$Comp
L SPST SW?
U 1 1 582CE470
P 2200 1300
F 0 "SW?" H 2200 1400 70  0000 C CNN
F 1 "SPST" H 2200 1200 70  0000 C CNN
F 2 "~" H 2200 1300 60  0000 C CNN
F 3 "~" H 2200 1300 60  0000 C CNN
	1    2200 1300
	1    0    0    -1  
$EndComp
$Comp
L R R?
U 1 1 582CE4A1
P 2850 1750
F 0 "R?" V 2930 1750 40  0000 C CNN
F 1 "R" V 2857 1751 40  0000 C CNN
F 2 "~" V 2780 1750 30  0000 C CNN
F 3 "~" H 2850 1750 30  0000 C CNN
	1    2850 1750
	1    0    0    -1  
$EndComp
$Comp
L R R?
U 1 1 582CE4B0
P 2850 2400
F 0 "R?" V 2930 2400 40  0000 C CNN
F 1 "R" V 2857 2401 40  0000 C CNN
F 2 "~" V 2780 2400 30  0000 C CNN
F 3 "~" H 2850 2400 30  0000 C CNN
	1    2850 2400
	1    0    0    -1  
$EndComp
$Comp
L CONNECTOR P?
U 1 1 582CE4BF
P 1500 1300
F 0 "P?" H 1850 1400 70  0000 C CNN
F 1 "CONNECTOR" H 1850 1200 70  0000 C CNN
F 2 "~" H 1500 1300 60  0000 C CNN
F 3 "~" H 1500 1300 60  0000 C CNN
	1    1500 1300
	-1   0    0    1   
$EndComp
Wire Wire Line
	9600 2600 9600 2700
Wire Wire Line
	9600 2650 9750 2650
Wire Wire Line
	9750 2650 9750 2700
Wire Wire Line
	9750 2700 9850 2700
Wire Wire Line
	9600 3300 9600 3350
Wire Wire Line
	9450 3350 9650 3350
Wire Wire Line
	9650 3350 9650 3300
Wire Wire Line
	9650 3300 9800 3300
Wire Wire Line
	8950 2600 9600 2600
Connection ~ 9600 2650
Wire Wire Line
	8950 2700 9450 2700
Wire Wire Line
	9450 2700 9450 3350
Connection ~ 9600 3350
Wire Wire Line
	10200 3300 10300 3300
Wire Wire Line
	10300 3300 10300 2700
Wire Wire Line
	10300 2700 10250 2700
Wire Wire Line
	10450 3200 10450 3150
Wire Wire Line
	10450 3150 10300 3150
Connection ~ 10300 3150
Wire Wire Line
	9650 3750 9700 3750
Wire Wire Line
	9700 3750 9700 3800
Wire Wire Line
	9700 3800 9800 3800
Wire Wire Line
	9800 3800 9800 3750
Wire Wire Line
	8950 3450 9100 3450
Wire Wire Line
	9100 3450 9100 3750
Wire Wire Line
	9100 3750 9150 3750
Wire Wire Line
	7050 4200 7000 4200
Wire Wire Line
	7000 4200 7000 4300
Wire Wire Line
	7000 4300 7050 4300
Wire Wire Line
	6650 4350 6650 4250
Wire Wire Line
	6650 4250 7000 4250
Connection ~ 7000 4250
Wire Wire Line
	7050 2300 7000 2300
Wire Wire Line
	7000 2300 7000 2000
Wire Wire Line
	7000 2000 7050 2000
Wire Wire Line
	6550 1850 6550 2150
Wire Wire Line
	6550 2150 7000 2150
Connection ~ 7000 2150
Wire Wire Line
	6750 3150 6750 2150
Connection ~ 6750 2150
Wire Wire Line
	6750 3550 6750 4250
Connection ~ 6750 4250
$Comp
L CONNECTOR P?
U 1 1 582CE4CE
P 1400 2450
F 0 "P?" H 1750 2550 70  0000 C CNN
F 1 "CONNECTOR" H 1750 2350 70  0000 C CNN
F 2 "~" H 1400 2450 60  0000 C CNN
F 3 "~" H 1400 2450 60  0000 C CNN
	1    1400 2450
	-1   0    0    1   
$EndComp
Wire Wire Line
	1500 1300 1700 1300
Wire Wire Line
	2700 1300 2850 1300
Wire Wire Line
	2850 1300 2850 1500
Wire Wire Line
	2850 2000 2850 2150
Wire Wire Line
	1400 2450 2400 2450
Wire Wire Line
	2400 2450 2400 2750
Wire Wire Line
	2400 2750 2850 2750
Wire Wire Line
	2850 2750 2850 2650
$EndSCHEMATC
