EESchema Schematic File Version 2
LIBS:power
LIBS:device
LIBS:transistors
LIBS:conn
LIBS:linear
LIBS:regul
LIBS:74xx
LIBS:cmos4000
LIBS:adc-dac
LIBS:memory
LIBS:xilinx
LIBS:special
LIBS:microcontrollers
LIBS:dsp
LIBS:microchip
LIBS:analog_switches
LIBS:motorola
LIBS:texas
LIBS:intel
LIBS:audio
LIBS:interface
LIBS:digital-audio
LIBS:philips
LIBS:display
LIBS:cypress
LIBS:siliconi
LIBS:opto
LIBS:atmel
LIBS:contrib
LIBS:valves
LIBS:schemat_plyta_glowna-cache
EELAYER 27 0
EELAYER END
$Descr A4 11693 8268
encoding utf-8
Sheet 1 1
Title ""
Date "17 nov 2016"
Rev ""
Comp ""
Comment1 ""
Comment2 ""
Comment3 ""
Comment4 ""
$EndDescr
$Comp
L LED D?
U 1 1 582CB712
P 4300 1900
F 0 "D?" H 4300 2000 50  0000 C CNN
F 1 "LED" H 4300 1800 50  0000 C CNN
F 2 "~" H 4300 1900 60  0000 C CNN
F 3 "~" H 4300 1900 60  0000 C CNN
	1    4300 1900
	1    0    0    -1  
$EndComp
$Comp
L LED D?
U 1 1 582CB721
P 4300 2250
F 0 "D?" H 4300 2350 50  0000 C CNN
F 1 "LED" H 4300 2150 50  0000 C CNN
F 2 "~" H 4300 2250 60  0000 C CNN
F 3 "~" H 4300 2250 60  0000 C CNN
	1    4300 2250
	1    0    0    -1  
$EndComp
$Comp
L R R?
U 1 1 582CB73F
P 4950 1900
F 0 "R?" V 5030 1900 40  0000 C CNN
F 1 "R" V 4957 1901 40  0000 C CNN
F 2 "~" V 4880 1900 30  0000 C CNN
F 3 "~" H 4950 1900 30  0000 C CNN
	1    4950 1900
	0    -1   -1   0   
$EndComp
$Comp
L R R?
U 1 1 582CB74E
P 4950 2250
F 0 "R?" V 5030 2250 40  0000 C CNN
F 1 "R" V 4957 2251 40  0000 C CNN
F 2 "~" V 4880 2250 30  0000 C CNN
F 3 "~" H 4950 2250 30  0000 C CNN
	1    4950 2250
	0    -1   -1   0   
$EndComp
$Comp
L SPST SW?
U 1 1 582CB7EE
P 8150 5900
F 0 "SW?" H 8150 6000 70  0000 C CNN
F 1 "SPST" H 8150 5800 70  0000 C CNN
F 2 "~" H 8150 5900 60  0000 C CNN
F 3 "~" H 8150 5900 60  0000 C CNN
	1    8150 5900
	0    -1   -1   0   
$EndComp
$Comp
L SPST SW?
U 1 1 582CB7FD
P 8650 5900
F 0 "SW?" H 8650 6000 70  0000 C CNN
F 1 "SPST" H 8650 5800 70  0000 C CNN
F 2 "~" H 8650 5900 60  0000 C CNN
F 3 "~" H 8650 5900 60  0000 C CNN
	1    8650 5900
	0    -1   -1   0   
$EndComp
$Comp
L C C?
U 1 1 582CB80C
P 10000 3300
F 0 "C?" H 10000 3400 40  0000 L CNN
F 1 "C" H 10006 3215 40  0000 L CNN
F 2 "~" H 10038 3150 30  0000 C CNN
F 3 "~" H 10000 3300 60  0000 C CNN
	1    10000 3300
	0    -1   -1   0   
$EndComp
$Comp
L C C?
U 1 1 582CB81B
P 10050 2700
F 0 "C?" H 10050 2800 40  0000 L CNN
F 1 "C" H 10056 2615 40  0000 L CNN
F 2 "~" H 10088 2550 30  0000 C CNN
F 3 "~" H 10050 2700 60  0000 C CNN
	1    10050 2700
	0    -1   -1   0   
$EndComp
$Comp
L CRYSTAL X?
U 1 1 582CB82A
P 9600 3000
F 0 "X?" H 9600 3150 60  0000 C CNN
F 1 "CRYSTAL" H 9600 2850 60  0000 C CNN
F 2 "~" H 9600 3000 60  0000 C CNN
F 3 "~" H 9600 3000 60  0000 C CNN
	1    9600 3000
	0    -1   -1   0   
$EndComp
$Comp
L ATMEGA328-P IC?
U 1 1 582CB839
P 7950 3100
F 0 "IC?" H 7200 4350 40  0000 L BNN
F 1 "ATMEGA328-P" H 8350 1700 40  0000 L BNN
F 2 "DIL28" H 7950 3100 30  0000 C CIN
F 3 "" H 7950 3100 60  0000 C CNN
	1    7950 3100
	1    0    0    -1  
$EndComp
$Comp
L GND #PWR?
U 1 1 582CB920
P 10450 3200
F 0 "#PWR?" H 10450 3200 30  0001 C CNN
F 1 "GND" H 10450 3130 30  0001 C CNN
F 2 "" H 10450 3200 60  0000 C CNN
F 3 "" H 10450 3200 60  0000 C CNN
	1    10450 3200
	1    0    0    -1  
$EndComp
$Comp
L R R?
U 1 1 582CB94F
P 9400 3750
F 0 "R?" V 9480 3750 40  0000 C CNN
F 1 "R" V 9407 3751 40  0000 C CNN
F 2 "~" V 9330 3750 30  0000 C CNN
F 3 "~" H 9400 3750 30  0000 C CNN
	1    9400 3750
	0    -1   -1   0   
$EndComp
$Comp
L +5V #PWR?
U 1 1 582CB95E
P 9800 3750
F 0 "#PWR?" H 9800 3840 20  0001 C CNN
F 1 "+5V" H 9800 3840 30  0000 C CNN
F 2 "" H 9800 3750 60  0000 C CNN
F 3 "" H 9800 3750 60  0000 C CNN
	1    9800 3750
	1    0    0    -1  
$EndComp
$Comp
L +5V #PWR?
U 1 1 582CB9B8
P 6550 1850
F 0 "#PWR?" H 6550 1940 20  0001 C CNN
F 1 "+5V" H 6550 1940 30  0000 C CNN
F 2 "" H 6550 1850 60  0000 C CNN
F 3 "" H 6550 1850 60  0000 C CNN
	1    6550 1850
	1    0    0    -1  
$EndComp
$Comp
L GND #PWR?
U 1 1 582CB9C7
P 6650 4350
F 0 "#PWR?" H 6650 4350 30  0001 C CNN
F 1 "GND" H 6650 4280 30  0001 C CNN
F 2 "" H 6650 4350 60  0000 C CNN
F 3 "" H 6650 4350 60  0000 C CNN
	1    6650 4350
	1    0    0    -1  
$EndComp
$Comp
L C C?
U 1 1 582CBA58
P 6750 3350
F 0 "C?" H 6750 3450 40  0000 L CNN
F 1 "C" H 6756 3265 40  0000 L CNN
F 2 "~" H 6788 3200 30  0000 C CNN
F 3 "~" H 6750 3350 60  0000 C CNN
	1    6750 3350
	1    0    0    -1  
$EndComp
Wire Wire Line
	9600 2600 9600 2700
Wire Wire Line
	9600 2650 9750 2650
Wire Wire Line
	9750 2650 9750 2700
Wire Wire Line
	9750 2700 9850 2700
Wire Wire Line
	9600 3300 9600 3350
Wire Wire Line
	9450 3350 9650 3350
Wire Wire Line
	9650 3350 9650 3300
Wire Wire Line
	9650 3300 9800 3300
Wire Wire Line
	8950 2600 9600 2600
Connection ~ 9600 2650
Wire Wire Line
	8950 2700 9450 2700
Wire Wire Line
	9450 2700 9450 3350
Connection ~ 9600 3350
Wire Wire Line
	10300 3300 10200 3300
Wire Wire Line
	10300 2700 10300 3300
Wire Wire Line
	10300 2700 10250 2700
Wire Wire Line
	10450 3200 10450 3150
Wire Wire Line
	10450 3150 10300 3150
Connection ~ 10300 3150
Wire Wire Line
	9650 3750 9700 3750
Wire Wire Line
	9700 3750 9700 3800
Wire Wire Line
	9700 3800 9800 3800
Wire Wire Line
	9800 3800 9800 3750
Wire Wire Line
	8950 3450 9100 3450
Wire Wire Line
	9100 3450 9100 3750
Wire Wire Line
	9100 3750 9150 3750
Wire Wire Line
	7050 4200 7000 4200
Wire Wire Line
	7000 4200 7000 4300
Wire Wire Line
	7000 4300 7050 4300
Wire Wire Line
	6650 4350 6650 4250
Wire Wire Line
	6650 4250 7000 4250
Connection ~ 7000 4250
Wire Wire Line
	7000 2300 7050 2300
Wire Wire Line
	7000 2000 7000 2300
Wire Wire Line
	7000 2000 7050 2000
Wire Wire Line
	6550 1850 6550 2150
Wire Wire Line
	6550 2150 7000 2150
Connection ~ 7000 2150
Wire Wire Line
	6750 3150 6750 2150
Connection ~ 6750 2150
Wire Wire Line
	6750 3550 6750 4250
Connection ~ 6750 4250
$Comp
L IRF540N Q?
U 1 1 582E04FF
P 4150 3450
F 0 "Q?" H 4150 3302 40  0000 R CNN
F 1 "IRF540N" H 4150 3599 40  0000 R CNN
F 2 "TO220" H 3971 3551 29  0000 C CNN
F 3 "~" H 4150 3450 60  0000 C CNN
	1    4150 3450
	1    0    0    -1  
$EndComp
$Comp
L IRF540N Q?
U 1 1 582E050E
P 4150 4050
F 0 "Q?" H 4150 3902 40  0000 R CNN
F 1 "IRF540N" H 4150 4199 40  0000 R CNN
F 2 "TO220" H 3971 4151 29  0000 C CNN
F 3 "~" H 4150 4050 60  0000 C CNN
	1    4150 4050
	1    0    0    -1  
$EndComp
$Comp
L R R?
U 1 1 582E0569
P 3650 3550
F 0 "R?" V 3730 3550 40  0000 C CNN
F 1 "R" V 3657 3551 40  0000 C CNN
F 2 "~" V 3580 3550 30  0000 C CNN
F 3 "~" H 3650 3550 30  0000 C CNN
	1    3650 3550
	1    0    0    -1  
$EndComp
$Comp
L R R?
U 1 1 582E0578
P 3650 4250
F 0 "R?" V 3730 4250 40  0000 C CNN
F 1 "R" V 3657 4251 40  0000 C CNN
F 2 "~" V 3580 4250 30  0000 C CNN
F 3 "~" H 3650 4250 30  0000 C CNN
	1    3650 4250
	1    0    0    -1  
$EndComp
$Comp
L LM317AEMP U?
U 1 1 582E05E4
P 4150 5500
F 0 "U?" H 3950 5700 40  0000 C CNN
F 1 "LM317AEMP" H 4150 5700 40  0000 L CNN
F 2 "SOT-223" H 4150 5600 30  0000 C CIN
F 3 "~" H 4150 5500 60  0000 C CNN
	1    4150 5500
	1    0    0    -1  
$EndComp
$Comp
L C C?
U 1 1 582E08AD
P 4900 5700
F 0 "C?" H 4900 5800 40  0000 L CNN
F 1 "C" H 4906 5615 40  0000 L CNN
F 2 "~" H 4938 5550 30  0000 C CNN
F 3 "~" H 4900 5700 60  0000 C CNN
	1    4900 5700
	1    0    0    -1  
$EndComp
$Comp
L C C?
U 1 1 582E08BC
P 5200 5700
F 0 "C?" H 5200 5800 40  0000 L CNN
F 1 "C" H 5206 5615 40  0000 L CNN
F 2 "~" H 5238 5550 30  0000 C CNN
F 3 "~" H 5200 5700 60  0000 C CNN
	1    5200 5700
	1    0    0    -1  
$EndComp
$Comp
L C C?
U 1 1 582E08CB
P 3550 5750
F 0 "C?" H 3550 5850 40  0000 L CNN
F 1 "C" H 3556 5665 40  0000 L CNN
F 2 "~" H 3588 5600 30  0000 C CNN
F 3 "~" H 3550 5750 60  0000 C CNN
	1    3550 5750
	1    0    0    -1  
$EndComp
$Comp
L C C?
U 1 1 582E08DA
P 3150 6700
F 0 "C?" H 3150 6800 40  0000 L CNN
F 1 "C" H 3156 6615 40  0000 L CNN
F 2 "~" H 3188 6550 30  0000 C CNN
F 3 "~" H 3150 6700 60  0000 C CNN
	1    3150 6700
	1    0    0    -1  
$EndComp
$Comp
L C C?
U 1 1 582E08E9
P 2850 6700
F 0 "C?" H 2850 6800 40  0000 L CNN
F 1 "C" H 2856 6615 40  0000 L CNN
F 2 "~" H 2888 6550 30  0000 C CNN
F 3 "~" H 2850 6700 60  0000 C CNN
	1    2850 6700
	1    0    0    -1  
$EndComp
$Comp
L CONNECTOR P?
U 1 1 582E090B
P 1600 6050
F 0 "P?" H 1950 6150 70  0000 C CNN
F 1 "CONNECTOR" H 1950 5950 70  0000 C CNN
F 2 "~" H 1600 6050 60  0000 C CNN
F 3 "~" H 1600 6050 60  0000 C CNN
	1    1600 6050
	-1   0    0    1   
$EndComp
$Comp
L CONNECTOR P?
U 1 1 582E091A
P 2200 5700
F 0 "P?" H 2550 5800 70  0000 C CNN
F 1 "CONNECTOR" H 2550 5600 70  0000 C CNN
F 2 "~" H 2200 5700 60  0000 C CNN
F 3 "~" H 2200 5700 60  0000 C CNN
	1    2200 5700
	0    -1   -1   0   
$EndComp
$Comp
L CONNECTOR P?
U 1 1 582E0929
P 1650 6650
F 0 "P?" H 2000 6750 70  0000 C CNN
F 1 "CONNECTOR" H 2000 6550 70  0000 C CNN
F 2 "~" H 1650 6650 60  0000 C CNN
F 3 "~" H 1650 6650 60  0000 C CNN
	1    1650 6650
	-1   0    0    1   
$EndComp
$Comp
L R R?
U 1 1 582E0942
P 2450 6150
F 0 "R?" V 2530 6150 40  0000 C CNN
F 1 "R" V 2457 6151 40  0000 C CNN
F 2 "~" V 2380 6150 30  0000 C CNN
F 3 "~" H 2450 6150 30  0000 C CNN
	1    2450 6150
	1    0    0    -1  
$EndComp
$Comp
L R R?
U 1 1 582E0951
P 2450 6850
F 0 "R?" V 2530 6850 40  0000 C CNN
F 1 "R" V 2457 6851 40  0000 C CNN
F 2 "~" V 2380 6850 30  0000 C CNN
F 3 "~" H 2450 6850 30  0000 C CNN
	1    2450 6850
	1    0    0    -1  
$EndComp
$Comp
L BC546 Q?
U 1 1 582E0960
P 9600 6550
F 0 "Q?" H 9600 6401 40  0000 R CNN
F 1 "BC546" H 9600 6700 40  0000 R CNN
F 2 "TO92" H 9500 6652 29  0000 C CNN
F 3 "~" H 9600 6550 60  0000 C CNN
	1    9600 6550
	1    0    0    -1  
$EndComp
$Comp
L R R?
U 1 1 582E096F
P 8650 5050
F 0 "R?" V 8730 5050 40  0000 C CNN
F 1 "R" V 8657 5051 40  0000 C CNN
F 2 "~" V 8580 5050 30  0000 C CNN
F 3 "~" H 8650 5050 30  0000 C CNN
	1    8650 5050
	1    0    0    -1  
$EndComp
$Comp
L R R?
U 1 1 582E097E
P 8150 5050
F 0 "R?" V 8230 5050 40  0000 C CNN
F 1 "R" V 8157 5051 40  0000 C CNN
F 2 "~" V 8080 5050 30  0000 C CNN
F 3 "~" H 8150 5050 30  0000 C CNN
	1    8150 5050
	1    0    0    -1  
$EndComp
$Comp
L R R?
U 1 1 582E098D
P 8400 6800
F 0 "R?" V 8480 6800 40  0000 C CNN
F 1 "R" V 8407 6801 40  0000 C CNN
F 2 "~" V 8330 6800 30  0000 C CNN
F 3 "~" H 8400 6800 30  0000 C CNN
	1    8400 6800
	1    0    0    -1  
$EndComp
$Comp
L R R?
U 1 1 582E099C
P 8950 6550
F 0 "R?" V 9030 6550 40  0000 C CNN
F 1 "R" V 8957 6551 40  0000 C CNN
F 2 "~" V 8880 6550 30  0000 C CNN
F 3 "~" H 8950 6550 30  0000 C CNN
	1    8950 6550
	0    -1   -1   0   
$EndComp
$Comp
L R R?
U 1 1 582E09AB
P 9700 5850
F 0 "R?" V 9780 5850 40  0000 C CNN
F 1 "R" V 9707 5851 40  0000 C CNN
F 2 "~" V 9630 5850 30  0000 C CNN
F 3 "~" H 9700 5850 30  0000 C CNN
	1    9700 5850
	1    0    0    -1  
$EndComp
$Comp
L GND #PWR?
U 1 1 582E0A00
P 9700 6900
F 0 "#PWR?" H 9700 6900 30  0001 C CNN
F 1 "GND" H 9700 6830 30  0001 C CNN
F 2 "" H 9700 6900 60  0000 C CNN
F 3 "" H 9700 6900 60  0000 C CNN
	1    9700 6900
	1    0    0    -1  
$EndComp
$Comp
L GND #PWR?
U 1 1 582E0A19
P 8400 7150
F 0 "#PWR?" H 8400 7150 30  0001 C CNN
F 1 "GND" H 8400 7080 30  0001 C CNN
F 2 "" H 8400 7150 60  0000 C CNN
F 3 "" H 8400 7150 60  0000 C CNN
	1    8400 7150
	1    0    0    -1  
$EndComp
Wire Wire Line
	8400 7150 8400 7050
Wire Wire Line
	9700 6750 9700 6900
Wire Wire Line
	9200 6550 9400 6550
Wire Wire Line
	8450 6550 8700 6550
Wire Wire Line
	8450 6400 8450 6550
Wire Wire Line
	8450 6500 8400 6500
Wire Wire Line
	8400 6400 8400 6550
Wire Wire Line
	8650 6400 8450 6400
Connection ~ 8450 6500
Wire Wire Line
	8150 6400 8400 6400
Connection ~ 8400 6500
Wire Wire Line
	9700 6100 9700 6350
Wire Wire Line
	8150 5300 8150 5400
Wire Wire Line
	8650 5300 8650 5400
Wire Wire Line
	8150 4800 8150 4750
Wire Wire Line
	8150 4750 9700 4750
Wire Wire Line
	8650 4750 8650 4800
Wire Wire Line
	9700 4750 9700 5600
Connection ~ 8650 4750
$Comp
L +5V #PWR?
U 1 1 582E0CFB
P 4750 5250
F 0 "#PWR?" H 4750 5340 20  0001 C CNN
F 1 "+5V" H 4750 5340 30  0000 C CNN
F 2 "" H 4750 5250 60  0000 C CNN
F 3 "" H 4750 5250 60  0000 C CNN
	1    4750 5250
	1    0    0    -1  
$EndComp
$Comp
L GND #PWR?
U 1 1 582E0D0A
P 4150 6050
F 0 "#PWR?" H 4150 6050 30  0001 C CNN
F 1 "GND" H 4150 5980 30  0001 C CNN
F 2 "" H 4150 6050 60  0000 C CNN
F 3 "" H 4150 6050 60  0000 C CNN
	1    4150 6050
	1    0    0    -1  
$EndComp
$Comp
L GND #PWR?
U 1 1 582E0D19
P 2450 7250
F 0 "#PWR?" H 2450 7250 30  0001 C CNN
F 1 "GND" H 2450 7180 30  0001 C CNN
F 2 "" H 2450 7250 60  0000 C CNN
F 3 "" H 2450 7250 60  0000 C CNN
	1    2450 7250
	1    0    0    -1  
$EndComp
$Comp
L GND #PWR?
U 1 1 582E0D28
P 1700 6850
F 0 "#PWR?" H 1700 6850 30  0001 C CNN
F 1 "GND" H 1700 6780 30  0001 C CNN
F 2 "" H 1700 6850 60  0000 C CNN
F 3 "" H 1700 6850 60  0000 C CNN
	1    1700 6850
	1    0    0    -1  
$EndComp
Wire Wire Line
	3550 5950 5200 5950
Wire Wire Line
	5200 5950 5200 5900
Wire Wire Line
	4900 5900 4900 5950
Connection ~ 4900 5950
Wire Wire Line
	4150 5750 4150 6050
Connection ~ 4150 5950
Wire Wire Line
	4550 5450 5200 5450
Wire Wire Line
	5200 5450 5200 5500
Wire Wire Line
	4900 5500 4900 5450
Connection ~ 4900 5450
Wire Wire Line
	4750 5250 4750 5450
Connection ~ 4750 5450
Wire Wire Line
	2450 7100 2450 7250
Wire Wire Line
	2850 6900 2850 7200
Wire Wire Line
	2450 7200 3150 7200
Connection ~ 2450 7200
Wire Wire Line
	3150 7200 3150 6900
Connection ~ 2850 7200
Wire Wire Line
	2450 6400 2450 6600
Wire Wire Line
	2850 6500 2850 6450
Wire Wire Line
	2850 6450 2450 6450
Connection ~ 2450 6450
Wire Wire Line
	3150 5850 3150 6500
Wire Wire Line
	2450 5450 2450 5900
Wire Wire Line
	1650 6650 1700 6650
Wire Wire Line
	1700 6650 1700 6850
Wire Wire Line
	2200 5850 3150 5850
Wire Wire Line
	2200 5850 2200 5700
$Comp
L CONNECTOR P?
U 1 1 582E1364
P 1750 5700
F 0 "P?" H 2100 5800 70  0000 C CNN
F 1 "CONNECTOR" H 2100 5600 70  0000 C CNN
F 2 "~" H 1750 5700 60  0000 C CNN
F 3 "~" H 1750 5700 60  0000 C CNN
	1    1750 5700
	0    -1   -1   0   
$EndComp
Wire Wire Line
	1600 6050 1750 6050
Wire Wire Line
	1750 6050 1750 5700
Connection ~ 2450 5850
Wire Wire Line
	2450 5450 3750 5450
Wire Wire Line
	3550 5450 3550 5550
Connection ~ 3550 5450
$EndSCHEMATC
