EESchema Schematic File Version 2
LIBS:power
LIBS:device
LIBS:transistors
LIBS:conn
LIBS:linear
LIBS:regul
LIBS:74xx
LIBS:cmos4000
LIBS:adc-dac
LIBS:memory
LIBS:xilinx
LIBS:special
LIBS:microcontrollers
LIBS:dsp
LIBS:microchip
LIBS:analog_switches
LIBS:motorola
LIBS:texas
LIBS:intel
LIBS:audio
LIBS:interface
LIBS:digital-audio
LIBS:philips
LIBS:display
LIBS:cypress
LIBS:siliconi
LIBS:opto
LIBS:atmel
LIBS:contrib
LIBS:valves
EELAYER 27 0
EELAYER END
$Descr A4 11693 8268
encoding utf-8
Sheet 1 1
Title ""
Date "2 nov 2016"
Rev ""
Comp ""
Comment1 ""
Comment2 ""
Comment3 ""
Comment4 ""
$EndDescr
$Comp
L R R3
U 1 1 581A57AF
P 6100 3750
F 0 "R3" V 6180 3750 40  0000 C CNN
F 1 "2 k" V 6107 3751 40  0000 C CNN
F 2 "~" V 6030 3750 30  0000 C CNN
F 3 "~" H 6100 3750 30  0000 C CNN
	1    6100 3750
	1    0    0    -1  
$EndComp
$Comp
L R R1
U 1 1 581A57C2
P 4850 4550
F 0 "R1" V 4930 4550 40  0000 C CNN
F 1 "470" V 4857 4551 40  0000 C CNN
F 2 "~" V 4780 4550 30  0000 C CNN
F 3 "~" H 4850 4550 30  0000 C CNN
	1    4850 4550
	1    0    0    -1  
$EndComp
$Comp
L R R2
U 1 1 581A57D1
P 5650 2400
F 0 "R2" V 5730 2400 40  0000 C CNN
F 1 "470" V 5657 2401 40  0000 C CNN
F 2 "~" V 5580 2400 30  0000 C CNN
F 3 "~" H 5650 2400 30  0000 C CNN
	1    5650 2400
	1    0    0    -1  
$EndComp
$Comp
L LED D1
U 1 1 581A5835
P 4850 4000
F 0 "D1" H 4850 4100 50  0000 C CNN
F 1 "LED" H 4850 3900 50  0000 C CNN
F 2 "~" H 4850 4000 60  0000 C CNN
F 3 "~" H 4850 4000 60  0000 C CNN
	1    4850 4000
	0    1    1    0   
$EndComp
$Comp
L LED D2
U 1 1 581A5844
P 5650 1850
F 0 "D2" H 5650 1950 50  0000 C CNN
F 1 "LED" H 5650 1750 50  0000 C CNN
F 2 "~" H 5650 1850 60  0000 C CNN
F 3 "~" H 5650 1850 60  0000 C CNN
	1    5650 1850
	0    1    1    0   
$EndComp
$Comp
L C C3
U 1 1 581A5853
P 5900 3000
F 0 "C3" H 5900 3100 40  0000 L CNN
F 1 "100n" H 5906 2915 40  0000 L CNN
F 2 "~" H 5938 2850 30  0000 C CNN
F 3 "~" H 5900 3000 60  0000 C CNN
	1    5900 3000
	1    0    0    -1  
$EndComp
$Comp
L C C4
U 1 1 581A5862
P 6250 3000
F 0 "C4" H 6250 3100 40  0000 L CNN
F 1 "4,7uF" H 6256 2915 40  0000 L CNN
F 2 "~" H 6288 2850 30  0000 C CNN
F 3 "~" H 6250 3000 60  0000 C CNN
	1    6250 3000
	1    0    0    -1  
$EndComp
$Comp
L LM101H U1
U 1 1 581A5A18
P 4950 3250
F 0 "U1" H 4950 3250 60  0000 C CNN
F 1 "MCP 73831" H 5100 3050 50  0000 C CNN
F 2 "" H 4950 3250 60  0000 C CNN
F 3 "" H 4950 3250 60  0000 C CNN
	1    4950 3250
	1    0    0    -1  
$EndComp
NoConn ~ 5450 3150
NoConn ~ 5450 3250
NoConn ~ 4850 2850
$Comp
L C C1
U 1 1 581A5A25
P 4800 2000
F 0 "C1" H 4800 2100 40  0000 L CNN
F 1 "100n" H 4806 1915 40  0000 L CNN
F 2 "~" H 4838 1850 30  0000 C CNN
F 3 "~" H 4800 2000 60  0000 C CNN
	1    4800 2000
	1    0    0    -1  
$EndComp
$Comp
L C C2
U 1 1 581A5A2B
P 5050 2000
F 0 "C2" H 5050 2100 40  0000 L CNN
F 1 "4,7uF" H 5056 1915 40  0000 L CNN
F 2 "~" H 5088 1850 30  0000 C CNN
F 3 "~" H 5050 2000 60  0000 C CNN
	1    5050 2000
	1    0    0    -1  
$EndComp
$Comp
L CONNECTOR P1
U 1 1 581A5A33
P 4650 1700
F 0 "P1" H 5000 1800 70  0000 C CNN
F 1 "U zas +" H 5000 1600 70  0000 C CNN
F 2 "~" H 4650 1700 60  0000 C CNN
F 3 "~" H 4650 1700 60  0000 C CNN
	1    4650 1700
	-1   0    0    1   
$EndComp
$Comp
L CONNECTOR P2
U 1 1 581A5A42
P 4650 2250
F 0 "P2" H 5000 2350 70  0000 C CNN
F 1 "U zas -" H 5000 2150 70  0000 C CNN
F 2 "~" H 4650 2250 60  0000 C CNN
F 3 "~" H 4650 2250 60  0000 C CNN
	1    4650 2250
	-1   0    0    1   
$EndComp
$Comp
L CONNECTOR P3
U 1 1 581A5A51
P 6800 2800
F 0 "P3" H 7150 2900 70  0000 C CNN
F 1 "BAT +" H 7150 2700 70  0000 C CNN
F 2 "~" H 6800 2800 60  0000 C CNN
F 3 "~" H 6800 2800 60  0000 C CNN
	1    6800 2800
	1    0    0    -1  
$EndComp
$Comp
L CONNECTOR P4
U 1 1 581A5A60
P 6800 3250
F 0 "P4" H 7150 3350 70  0000 C CNN
F 1 "BAT -" H 7150 3150 70  0000 C CNN
F 2 "~" H 6800 3250 60  0000 C CNN
F 3 "~" H 6800 3250 60  0000 C CNN
	1    6800 3250
	1    0    0    -1  
$EndComp
$Comp
L GND #PWR4
U 1 1 581A5A6F
P 4800 2350
F 0 "#PWR4" H 4800 2350 30  0001 C CNN
F 1 "GND" H 4800 2280 30  0001 C CNN
F 2 "" H 4800 2350 60  0000 C CNN
F 3 "" H 4800 2350 60  0000 C CNN
	1    4800 2350
	1    0    0    -1  
$EndComp
$Comp
L GND #PWR7
U 1 1 581A5A7E
P 6100 4100
F 0 "#PWR7" H 6100 4100 30  0001 C CNN
F 1 "GND" H 6100 4030 30  0001 C CNN
F 2 "" H 6100 4100 60  0000 C CNN
F 3 "" H 6100 4100 60  0000 C CNN
	1    6100 4100
	1    0    0    -1  
$EndComp
$Comp
L VCC #PWR3
U 1 1 581A5A8D
P 4800 1650
F 0 "#PWR3" H 4800 1750 30  0001 C CNN
F 1 "VCC" H 4800 1750 30  0000 C CNN
F 2 "" H 4800 1650 60  0000 C CNN
F 3 "" H 4800 1650 60  0000 C CNN
	1    4800 1650
	1    0    0    -1  
$EndComp
$Comp
L +BATT #PWR9
U 1 1 581A5A9C
P 6550 2600
F 0 "#PWR9" H 6550 2550 20  0001 C CNN
F 1 "+BATT" H 6550 2700 30  0000 C CNN
F 2 "" H 6550 2600 60  0000 C CNN
F 3 "" H 6550 2600 60  0000 C CNN
	1    6550 2600
	1    0    0    -1  
$EndComp
Wire Wire Line
	5450 3350 6100 3350
Wire Wire Line
	4450 3150 4400 3150
Wire Wire Line
	4400 3150 4400 2700
Wire Wire Line
	4400 2700 6800 2700
Wire Wire Line
	6250 2700 6250 2800
Wire Wire Line
	5900 2800 5900 2700
Connection ~ 5900 2700
Wire Wire Line
	6800 2700 6800 2800
Connection ~ 6250 2700
Wire Wire Line
	6550 2600 6550 2700
Connection ~ 6550 2700
Wire Wire Line
	6800 3250 5900 3250
Wire Wire Line
	5900 3250 5900 3200
Wire Wire Line
	6250 3200 6250 3350
Connection ~ 6250 3250
$Comp
L GND #PWR8
U 1 1 581A5B2F
P 6250 3350
F 0 "#PWR8" H 6250 3350 30  0001 C CNN
F 1 "GND" H 6250 3280 30  0001 C CNN
F 2 "" H 6250 3350 60  0000 C CNN
F 3 "" H 6250 3350 60  0000 C CNN
	1    6250 3350
	1    0    0    -1  
$EndComp
Wire Wire Line
	4800 1650 4800 1800
Connection ~ 4800 1700
Wire Wire Line
	4650 2250 5050 2250
Wire Wire Line
	4800 2200 4800 2350
Connection ~ 4800 2250
Wire Wire Line
	5050 2250 5050 2200
Wire Wire Line
	5050 1700 5050 1800
$Comp
L GND #PWR5
U 1 1 581A5CF4
P 4850 4950
F 0 "#PWR5" H 4850 4950 30  0001 C CNN
F 1 "GND" H 4850 4880 30  0001 C CNN
F 2 "" H 4850 4950 60  0000 C CNN
F 3 "" H 4850 4950 60  0000 C CNN
	1    4850 4950
	1    0    0    -1  
$EndComp
Wire Wire Line
	4850 3650 4850 3800
Wire Wire Line
	4850 4200 4850 4300
Wire Wire Line
	4850 4800 4850 4950
Wire Wire Line
	5650 3050 5450 3050
Connection ~ 4850 3750
Wire Wire Line
	6100 3350 6100 3500
Wire Wire Line
	6100 4000 6100 4100
$Comp
L GND #PWR1
U 1 1 581A5E6F
P 4400 3450
F 0 "#PWR1" H 4400 3450 30  0001 C CNN
F 1 "GND" H 4400 3380 30  0001 C CNN
F 2 "" H 4400 3450 60  0000 C CNN
F 3 "" H 4400 3450 60  0000 C CNN
	1    4400 3450
	1    0    0    -1  
$EndComp
Wire Wire Line
	4400 3450 4400 3350
Wire Wire Line
	4400 3350 4450 3350
Wire Wire Line
	4650 1700 5050 1700
Wire Wire Line
	5650 2050 5650 2150
$Comp
L VCC #PWR6
U 1 1 581A5FC8
P 5650 1600
F 0 "#PWR6" H 5650 1700 30  0001 C CNN
F 1 "VCC" H 5650 1700 30  0000 C CNN
F 2 "" H 5650 1600 60  0000 C CNN
F 3 "" H 5650 1600 60  0000 C CNN
	1    5650 1600
	1    0    0    -1  
$EndComp
Wire Wire Line
	5650 1600 5650 1650
$Comp
L VCC #PWR2
U 1 1 581A6004
P 4700 3700
F 0 "#PWR2" H 4700 3800 30  0001 C CNN
F 1 "VCC" H 4700 3800 30  0000 C CNN
F 2 "" H 4700 3700 60  0000 C CNN
F 3 "" H 4700 3700 60  0000 C CNN
	1    4700 3700
	1    0    0    -1  
$EndComp
Wire Wire Line
	4700 3700 4700 3750
Wire Wire Line
	4700 3750 4850 3750
Wire Wire Line
	5650 3050 5650 2650
$EndSCHEMATC
